//	120フレーム待つ
WAIT	120

/*
	ここから敵出現
*/

ENEMY	0, -2, 0, 60
ENEMY	0,  0, 0, 60
ENEMY	0,  2, 0, 60

WAIT	120

ENEMY	1, -2, 1, 60
ENEMY	1,  0, 0, 60
ENEMY	1,  2, -1, 60

WAIT	120

ENEMY	2, -2, -1, 60
ENEMY	2,  0, 0, 60
ENEMY	2,  2, 1, 60

WAIT	180

ENEMY	0, -2, 1, 60
ENEMY	1, -1, 0.5, 60
ENEMY	2,  0, -1, 65
ENEMY	0,  0.5, -1.5, 65
ENEMY	1,  1, -2, 70
ENEMY	2,  1.5, -2, 70

WAIT	180

ENEMY	0, -2.5, 1, 60
ENEMY	0, -1.5, 0.5, 60
ENEMY	0,  -1, -1, 65
ENEMY	0,  1, -1.5, 65
ENEMY	0,  1.5, -2, 70
ENEMY	0,  2.0, -2, 70

WAIT	180

ENEMY	0, -2, 1, 60
ENEMY	0, -1, 0.5, 60
ENEMY	0,  0, -1, 65
ENEMY	0,  0.5, -1.5, 65
ENEMY	0,  1, -2, 70
ENEMY	0,  1.5, -2, 70

WAIT	180

ENEMY	0, -2, 1, 60
ENEMY	0, -1, 0.5, 60
ENEMY	0,  0, -1, 65
ENEMY	0,  0.5, -1.5, 65
ENEMY	0,  1, -2, 70
ENEMY	0,  1.5, -2, 70

WAIT	60

ENEMY	1,-3, 0, 60
ENEMY	1,-2, 1, 60
ENEMY	1, 0, 0, 60
ENEMY	1, 2, 1, 60
ENEMY	1, 3, 0, 60

WAIT	60

ENEMY	2, 0, 0.5, 60
ENEMY	2, 1, 0.5, 60
ENEMY	2,-2, 0.5, 60

WAIT	60

ENEMY	0, 0, -0.5, 60
ENEMY	0, 1, -0.5, 65
ENEMY	0,-1, -0.5, 70

WAIT	60

ENEMY	1, 0, 0, 60
ENEMY	2, 1, 0, 60
ENEMY	0,-1, 0, 60

WAIT	60

ENEMY	2, 0, 0, 60
ENEMY	2, 1, 0, 60
ENEMY	2,-1, 0, 60

WAIT	60

ENEMY	1, 0, 1, 60
ENEMY	1, 1, 2, 60
ENEMY	1,-1, 3, 60

WAIT	30

ENEMY	2, 0, 0.5, 60
ENEMY	2, 1, 0,   60
ENEMY	2,-1, 0,   60

WAIT	20

ENEMY	0, 0, 0,   60
ENEMY	0, 1, 0.5, 60
ENEMY	0,-1, 0.5, 60

WAIT	10

ENEMY	0, 0, 0,   60
ENEMY	1, 1, 0.5, 60
ENEMY	2,-1, 1,   60

WAIT	5
ENEMY	1, 0, 0, 60

WAIT	5
ENEMY	2, 0, 0, 60

WAIT	5
ENEMY	0, 0, 0, 60

WAIT	5
ENEMY	1, 0, 0, 60

WAIT	5
ENEMY	2, 0, 0, 60

WAIT	5
ENEMY	0, 0, 0, 60

WAIT	60

ENEMY	1, 0, 0, 60
ENEMY	1, 1, 0, 60
ENEMY	1,-1, 0, 60

WAIT	60

ENEMY	2, 0, 0, 60
ENEMY	2, 1, 0, 60
ENEMY	2,-1, 0, 60

WAIT	60

ENEMY	0, 0, 0,   60
ENEMY	0, 1, 1,   60
ENEMY	0,-1, 1.5, 60

WAIT	30

ENEMY	1, 0, 0,   60
ENEMY	1, 1, 0,   60
ENEMY	1,-1, 0, 60

WAIT	20

ENEMY	2, 0, 1.5, 60
ENEMY	2, 1, 1,   60
ENEMY	2,-1, 0,   60

WAIT	10

ENEMY	0, 0, 0,   60
ENEMY	1, 1, 1,   60
ENEMY	2,-1, 1.5, 60

WAIT	400

BOSS